Tracking Extra Quantities – Turing.jl
…
The first way is to use the := operator, which behaves exactly like = except that the values of the variables on its left-hand side are automatically added to the chain returned by the sampler. For example:

@model function Neal_coloneq()
    # Raw draws
    y_raw ~ Normal(0, 1)
    x_raw ~ arraydist([Normal(0, 1) for i in 1:9])

    # Transform:
    y := 3 * y_raw
    x := exp.(y ./ 2) .* x_raw
end

sample(Neal_coloneq(), NUTS(), 1000)

┌ Info: Found initial step size
└   ϵ = 1.6

Chains MCMC chain (1000×32×1 Array{Float64, 3}):

Iterations        = 501:1:1500
Number of chains  = 1
Samples per chain = 1000
Wall duration     = 7.43 seconds
Compute duration  = 7.43 seconds
parameters        = y_raw, x_raw[1], x_raw[2], x_raw[3], x_raw[4], x_raw[5], x_raw[6], x_raw[7], x_raw[8], x_raw[9], y, x[1], x[2], x[3], x[4], x[5], x[6], x[7], x[8], x[9]
internals         = lp, n_steps, is_accept, acceptance_rate, log_density, hamiltonian_energy, hamiltonian_energy_error, max_hamiltonian_energy_error, tree_depth, numerical_error, step_size, nom_step_size

Summary Statistics
  parameters      mean       std      mcse    ess_bulk   ess_tail      rhat    ⋯
      Symbol   Float64   Float64   Float64     Float64    Float64   Float64    ⋯

       y_raw   -0.0014    1.0205    0.0337    915.1567   792.6575    1.0029    ⋯
    x_raw[1]   -0.0194    1.0814    0.0291   1383.8102   468.9031    1.0017    ⋯
    x_raw[2]    0.0447    1.0357    0.0306   1152.2197   694.0510    1.0016    ⋯
    x_raw[3]   -0.0314    0.9530    0.0290   1072.9222   785.9703    0.9993    ⋯
    x_raw[4]    0.0454    1.0376    0.0328    994.8728   665.2838    0.9994    ⋯
    x_raw[5]   -0.0595    1.0071    0.0293   1179.3780   806.8491    1.0007    ⋯
    x_raw[6]   -0.0230    0.9857    0.0320    953.7278   666.4148    0.9994    ⋯
    x_raw[7]   -0.0418    1.0261    0.0316   1051.7115   642.2759    1.0072    ⋯
    x_raw[8]    0.0244    0.9896    0.0329    897.0677   665.2838    1.0002    ⋯
    x_raw[9]   -0.0463    1.0337    0.0311   1086.5587   640.7771    0.9997    ⋯
           y   -0.0041    3.0614    0.1012    915.1567   792.6575    1.0029    ⋯
        x[1]   -0.2017    6.0453    0.1899   1239.0577   895.8444    0.9996    ⋯
        x[2]    0.2699    7.7127    0.2680    915.2759   813.6098    1.0002    ⋯
        x[3]    0.0880    6.2660    0.1933    964.9620   732.2169    0.9995    ⋯
        x[4]    0.4838    7.3826    0.2513    786.4018   694.9504    0.9991    ⋯
        x[5]    0.0737    7.1836    0.2193   1031.7932   908.0965    0.9996    ⋯
        x[6]   -0.1073    6.5858    0.2152    920.3175   906.1256    0.9998    ⋯
      ⋮           ⋮         ⋮         ⋮          ⋮          ⋮          ⋮       ⋱
                                                     1 column and 3 rows omitted
…
