Tracking Extra Quantities – Turing.jl
…
The first way is to use the := operator, which behaves exactly like = except that the values of the variables on its left-hand side are automatically added to the chain returned by the sampler. For example:

@model function Neal_coloneq()
    # Raw draws
    y_raw ~ Normal(0, 1)
    x_raw ~ arraydist([Normal(0, 1) for i in 1:9])

    # Transform:
    y := 3 * y_raw
    x := exp.(y ./ 2) .* x_raw
end

sample(Neal_coloneq(), NUTS(), 1000)

┌ Info: Found initial step size
└   ϵ = 1.6

Chains MCMC chain (1000×32×1 Array{Float64, 3}):

Iterations        = 501:1:1500
Number of chains  = 1
Samples per chain = 1000
Wall duration     = 7.29 seconds
Compute duration  = 7.29 seconds
parameters        = y_raw, x_raw[1], x_raw[2], x_raw[3], x_raw[4], x_raw[5], x_raw[6], x_raw[7], x_raw[8], x_raw[9], y, x[1], x[2], x[3], x[4], x[5], x[6], x[7], x[8], x[9]
internals         = lp, n_steps, is_accept, acceptance_rate, log_density, hamiltonian_energy, hamiltonian_energy_error, max_hamiltonian_energy_error, tree_depth, numerical_error, step_size, nom_step_size

Summary Statistics
  parameters      mean       std      mcse    ess_bulk   ess_tail      rhat    ⋯
      Symbol   Float64   Float64   Float64     Float64    Float64   Float64    ⋯

       y_raw   -0.0034    0.9916    0.0324    935.9688   490.2833    1.0003    ⋯
    x_raw[1]   -0.0053    0.9936    0.0289   1184.7781   598.4342    1.0021    ⋯
    x_raw[2]   -0.0097    1.0316    0.0320   1042.8275   734.4811    1.0062    ⋯
    x_raw[3]   -0.0645    1.0158    0.0342    884.9449   646.0270    1.0056    ⋯
    x_raw[4]    0.0104    1.0425    0.0325   1036.2869   722.3578    0.9999    ⋯
    x_raw[5]    0.0453    1.0508    0.0335    972.0427   553.8737    1.0010    ⋯
    x_raw[6]    0.0236    0.9756    0.0287   1162.2311   805.4932    0.9994    ⋯
    x_raw[7]    0.0165    0.9923    0.0330    905.7803   694.2048    1.0014    ⋯
    x_raw[8]   -0.0318    0.9723    0.0330    888.6136   558.7092    0.9997    ⋯
    x_raw[9]    0.0622    0.9331    0.0280   1108.4882   738.6535    0.9998    ⋯
           y   -0.0101    2.9749    0.0972    935.9688   490.2833    1.0003    ⋯
        x[1]   -0.2444    8.5153    0.2677   1087.7910   904.8074    1.0021    ⋯
        x[2]   -0.2937    9.1656    0.3022    959.7873   757.8167    1.0019    ⋯
        x[3]    0.1089    8.6827    0.3352    767.3657   563.3529    0.9999    ⋯
        x[4]    0.1799    9.1422    0.3370    877.9345   576.4209    0.9994    ⋯
        x[5]    0.0567   10.8816    0.3863    847.9923   660.7247    0.9992    ⋯
        x[6]   -0.0820    8.5460    0.2955    946.2146   716.9414    0.9999    ⋯
      ⋮           ⋮         ⋮         ⋮          ⋮          ⋮          ⋮       ⋱
                                                     1 column and 3 rows omitted
…
