Tracking Extra Quantities – Turing.jl
…
The first way is to use the := operator, which behaves exactly like = except that the values of the variables on its left-hand side are automatically added to the chain returned by the sampler. For example:

@model function Neal_coloneq()
    # Raw draws
    y_raw ~ Normal(0, 1)
    x_raw ~ arraydist([Normal(0, 1) for i in 1:9])

    # Transform:
    y := 3 * y_raw
    x := exp.(y ./ 2) .* x_raw
end

sample(Neal_coloneq(), NUTS(), 1000)

┌ Info: Found initial step size
└   ϵ = 1.6

Chains MCMC chain (1000×32×1 Array{Float64, 3}):

Iterations        = 501:1:1500
Number of chains  = 1
Samples per chain = 1000
Wall duration     = 6.95 seconds
Compute duration  = 6.95 seconds
parameters        = y_raw, x_raw[1], x_raw[2], x_raw[3], x_raw[4], x_raw[5], x_raw[6], x_raw[7], x_raw[8], x_raw[9], y, x[1], x[2], x[3], x[4], x[5], x[6], x[7], x[8], x[9]
internals         = lp, n_steps, is_accept, acceptance_rate, log_density, hamiltonian_energy, hamiltonian_energy_error, max_hamiltonian_energy_error, tree_depth, numerical_error, step_size, nom_step_size

Summary Statistics
  parameters      mean       std      mcse    ess_bulk   ess_tail      rhat    ⋯
      Symbol   Float64   Float64   Float64     Float64    Float64   Float64    ⋯

       y_raw   -0.0280    1.0332    0.0310   1115.3539   478.5017    0.9995    ⋯
    x_raw[1]    0.0278    1.0133    0.0313   1055.0772   906.1256    1.0017    ⋯
    x_raw[2]   -0.0073    0.9638    0.0258   1379.2833   743.8181    1.0025    ⋯
    x_raw[3]   -0.0057    0.9930    0.0278   1272.9785   812.8689    1.0002    ⋯
    x_raw[4]   -0.0411    0.9683    0.0288   1130.9735   656.0593    1.0018    ⋯
    x_raw[5]   -0.0226    0.9776    0.0236   1708.0482   842.0778    1.0021    ⋯
    x_raw[6]    0.0065    0.9981    0.0308   1050.1970   716.9414    1.0033    ⋯
    x_raw[7]    0.0419    1.0231    0.0311   1072.3563   736.5023    1.0005    ⋯
    x_raw[8]    0.0289    1.0401    0.0349    870.6978   590.8828    1.0028    ⋯
    x_raw[9]    0.0184    0.9841    0.0327    912.3626   738.7919    0.9991    ⋯
           y   -0.0839    3.0997    0.0929   1115.3539   478.5017    0.9995    ⋯
        x[1]    0.1829    5.8338    0.2191    788.7159   760.3348    1.0022    ⋯
        x[2]   -0.2511    8.4746    0.2944    752.1863   561.6456    1.0011    ⋯
        x[3]    0.1381    7.2048    0.2416    950.3264   720.1504    0.9991    ⋯
        x[4]   -0.0718    6.5701    0.2388    871.9171   623.6581    0.9993    ⋯
        x[5]   -0.0495   10.5750    0.3489   1190.0438   693.3067    0.9999    ⋯
        x[6]   -0.5694    9.0103    0.3111    972.6166   666.4042    1.0005    ⋯
      ⋮           ⋮         ⋮         ⋮          ⋮          ⋮          ⋮       ⋱
                                                     1 column and 3 rows omitted
…
