Tracking Extra Quantities – Turing.jl
…
The first way is to use the := operator, which behaves exactly like = except that the values of the variables on its left-hand side are automatically added to the chain returned by the sampler. For example:

@model function Neal_coloneq()
    # Raw draws
    y_raw ~ Normal(0, 1)
    x_raw ~ arraydist([Normal(0, 1) for i in 1:9])

    # Transform:
    y := 3 * y_raw
    x := exp.(y ./ 2) .* x_raw
end

sample(Neal_coloneq(), NUTS(), 1000)

┌ Info: Found initial step size
└   ϵ = 1.6500000000000001

Chains MCMC chain (1000×32×1 Array{Float64, 3}):

Iterations        = 501:1:1500
Number of chains  = 1
Samples per chain = 1000
Wall duration     = 8.08 seconds
Compute duration  = 8.08 seconds
parameters        = y_raw, x_raw[1], x_raw[2], x_raw[3], x_raw[4], x_raw[5], x_raw[6], x_raw[7], x_raw[8], x_raw[9], y, x[1], x[2], x[3], x[4], x[5], x[6], x[7], x[8], x[9]
internals         = lp, n_steps, is_accept, acceptance_rate, log_density, hamiltonian_energy, hamiltonian_energy_error, max_hamiltonian_energy_error, tree_depth, numerical_error, step_size, nom_step_size

Summary Statistics
  parameters      mean       std      mcse    ess_bulk   ess_tail      rhat    ⋯
      Symbol   Float64   Float64   Float64     Float64    Float64   Float64    ⋯

       y_raw   -0.0507    1.0190    0.0325    987.1486   635.4535    1.0025    ⋯
    x_raw[1]   -0.0375    0.9574    0.0291   1085.8224   647.0093    1.0000    ⋯
    x_raw[2]   -0.0148    0.9926    0.0304   1071.4727   764.9005    0.9992    ⋯
    x_raw[3]    0.0201    1.0159    0.0353    831.2637   629.2740    1.0000    ⋯
    x_raw[4]   -0.0013    0.9829    0.0275   1306.1937   874.9893    0.9991    ⋯
    x_raw[5]    0.0099    0.9997    0.0324    955.4817   579.5078    1.0029    ⋯
    x_raw[6]   -0.0577    1.0297    0.0272   1389.9555   721.1299    0.9999    ⋯
    x_raw[7]   -0.0276    0.9762    0.0336    848.7487   653.0651    1.0033    ⋯
    x_raw[8]    0.0360    1.0365    0.0326   1010.7891   513.7627    1.0012    ⋯
    x_raw[9]    0.0475    0.9863    0.0299   1091.0412   694.2048    1.0017    ⋯
           y   -0.1521    3.0569    0.0974    987.1486   635.4535    1.0025    ⋯
        x[1]   -0.2177    6.0521    0.2058    908.9308   637.9574    0.9990    ⋯
        x[2]    0.4954    6.8758    0.2499    920.3357   842.2043    0.9991    ⋯
        x[3]    0.1514    7.1223    0.2275    834.8812   717.1926    0.9992    ⋯
        x[4]    0.0369    5.4976    0.1982    920.2587   862.2547    0.9992    ⋯
        x[5]   -0.4443    6.0326    0.2140    881.1947   786.2867    1.0001    ⋯
        x[6]   -0.8507    6.8176    0.2535    861.8430   648.4530    0.9993    ⋯
      ⋮           ⋮         ⋮         ⋮          ⋮          ⋮          ⋮       ⋱
                                                     1 column and 3 rows omitted
…
