Tracking Extra Quantities – Turing.jl
…
The first way is to use the := operator, which behaves exactly like = except that the values of the variables on its left-hand side are automatically added to the chain returned by the sampler. For example:

@model function Neal_coloneq()
    # Raw draws
    y_raw ~ Normal(0, 1)
    x_raw ~ arraydist([Normal(0, 1) for i in 1:9])

    # Transform:
    y := 3 * y_raw
    x := exp.(y ./ 2) .* x_raw
end

sample(Neal_coloneq(), NUTS(), 1000)

┌ Info: Found initial step size
└   ϵ = 1.6

Chains MCMC chain (1000×32×1 Array{Float64, 3}):

Iterations        = 501:1:1500
Number of chains  = 1
Samples per chain = 1000
Wall duration     = 6.9 seconds
Compute duration  = 6.9 seconds
parameters        = y_raw, x_raw[1], x_raw[2], x_raw[3], x_raw[4], x_raw[5], x_raw[6], x_raw[7], x_raw[8], x_raw[9], y, x[1], x[2], x[3], x[4], x[5], x[6], x[7], x[8], x[9]
internals         = lp, n_steps, is_accept, acceptance_rate, log_density, hamiltonian_energy, hamiltonian_energy_error, max_hamiltonian_energy_error, tree_depth, numerical_error, step_size, nom_step_size

Summary Statistics
  parameters      mean       std      mcse    ess_bulk   ess_tail      rhat    ⋯
      Symbol   Float64   Float64   Float64     Float64    Float64   Float64    ⋯

       y_raw    0.0013    0.9993    0.0284   1237.3623   945.3040    1.0016    ⋯
    x_raw[1]    0.0035    1.0738    0.0280   1465.2563   855.0125    0.9990    ⋯
    x_raw[2]   -0.0174    0.9713    0.0288   1143.9887   819.5146    1.0010    ⋯
    x_raw[3]    0.0043    0.9560    0.0242   1535.3364   610.0000    1.0015    ⋯
    x_raw[4]    0.0317    0.9823    0.0277   1265.0943   682.9616    1.0009    ⋯
    x_raw[5]   -0.0293    0.9381    0.0268   1229.3756   724.6225    0.9990    ⋯
    x_raw[6]   -0.0309    1.0219    0.0267   1471.0977   815.6239    1.0003    ⋯
    x_raw[7]   -0.0120    0.9789    0.0247   1571.9030   790.6797    0.9991    ⋯
    x_raw[8]    0.0156    0.9926    0.0250   1579.9799   784.3440    1.0031    ⋯
    x_raw[9]   -0.0043    1.0129    0.0269   1392.4238   667.6761    1.0001    ⋯
           y    0.0040    2.9979    0.0853   1237.3623   945.3040    1.0016    ⋯
        x[1]   -0.0786    7.6862    0.2559    932.7040   902.8933    0.9998    ⋯
        x[2]    0.3420   11.9559    0.3911    951.0003   785.9897    1.0004    ⋯
        x[3]   -0.0033    6.0857    0.1919   1168.7116   816.0964    0.9993    ⋯
        x[4]    0.0496    7.3198    0.2240    836.6771   815.8681    1.0085    ⋯
        x[5]   -0.2568    6.8381    0.1958    881.2008   799.1664    0.9994    ⋯
        x[6]   -0.0261    7.4616    0.2433   1183.8903   546.8084    1.0011    ⋯
      ⋮           ⋮         ⋮         ⋮          ⋮          ⋮          ⋮       ⋱
                                                     1 column and 3 rows omitted
…
