Tracking Extra Quantities – Turing.jl
…
The first way is to use the := operator, which behaves exactly like = except that the values of the variables on its left-hand side are automatically added to the chain returned by the sampler. For example:

@model function Neal_coloneq()
    # Raw draws
    y_raw ~ Normal(0, 1)
    x_raw ~ arraydist([Normal(0, 1) for i in 1:9])

    # Transform:
    y := 3 * y_raw
    x := exp.(y ./ 2) .* x_raw
end

sample(Neal_coloneq(), NUTS(), 1000)

┌ Info: Found initial step size
└   ϵ = 1.6

Chains MCMC chain (1000×32×1 Array{Float64, 3}):

Iterations        = 501:1:1500
Number of chains  = 1
Samples per chain = 1000
Wall duration     = 7.24 seconds
Compute duration  = 7.24 seconds
parameters        = y_raw, x_raw[1], x_raw[2], x_raw[3], x_raw[4], x_raw[5], x_raw[6], x_raw[7], x_raw[8], x_raw[9], y, x[1], x[2], x[3], x[4], x[5], x[6], x[7], x[8], x[9]
internals         = lp, n_steps, is_accept, acceptance_rate, log_density, hamiltonian_energy, hamiltonian_energy_error, max_hamiltonian_energy_error, tree_depth, numerical_error, step_size, nom_step_size

Summary Statistics
  parameters      mean       std      mcse    ess_bulk   ess_tail      rhat    ⋯
      Symbol   Float64   Float64   Float64     Float64    Float64   Float64    ⋯

       y_raw   -0.0126    0.9997    0.0261   1472.5463   801.0136    1.0003    ⋯
    x_raw[1]    0.0165    1.0476    0.0304   1189.5895   725.8954    1.0005    ⋯
    x_raw[2]    0.0049    1.0205    0.0303   1143.5328   444.2618    0.9998    ⋯
    x_raw[3]    0.0230    0.9910    0.0292   1150.7575   571.5497    1.0080    ⋯
    x_raw[4]   -0.0017    0.9603    0.0295   1055.5687   647.8791    1.0013    ⋯
    x_raw[5]    0.0278    0.9918    0.0304   1082.0090   678.4968    1.0040    ⋯
    x_raw[6]   -0.0105    0.9969    0.0262   1420.2001   672.9011    1.0011    ⋯
    x_raw[7]   -0.0123    1.0130    0.0303   1108.2245   712.5287    1.0008    ⋯
    x_raw[8]    0.0147    1.0237    0.0296   1198.3653   881.7711    0.9995    ⋯
    x_raw[9]    0.0015    1.0087    0.0310   1029.4504   701.4378    1.0042    ⋯
           y   -0.0379    2.9991    0.0783   1472.5463   801.0136    1.0003    ⋯
        x[1]    0.0630    7.0859    0.2336   1122.1177   857.4302    0.9996    ⋯
        x[2]    0.1593    6.4173    0.2196   1029.0571   876.7329    1.0007    ⋯
        x[3]   -0.0724    6.7957    0.2287   1003.5210   868.2807    0.9994    ⋯
        x[4]    0.0902    6.3593    0.1901   1095.3248   955.6145    0.9996    ⋯
        x[5]    0.1443    5.1245    0.1670   1036.5002   939.1381    0.9999    ⋯
        x[6]    0.0524    4.7878    0.1575   1099.2514   831.1940    0.9991    ⋯
      ⋮           ⋮         ⋮         ⋮          ⋮          ⋮          ⋮       ⋱
                                                     1 column and 3 rows omitted
…
