Tracking Extra Quantities – Turing.jl
…
The first way is to use the := operator, which behaves exactly like = except that the values of the variables on its left-hand side are automatically added to the chain returned by the sampler. For example:

@model function Neal_coloneq()
    # Raw draws
    y_raw ~ Normal(0, 1)
    x_raw ~ arraydist([Normal(0, 1) for i in 1:9])

    # Transform:
    y := 3 * y_raw
    x := exp.(y ./ 2) .* x_raw
end

sample(Neal_coloneq(), NUTS(), 1000)

┌ Info: Found initial step size
└   ϵ = 1.6

Chains MCMC chain (1000×32×1 Array{Float64, 3}):

Iterations        = 501:1:1500
Number of chains  = 1
Samples per chain = 1000
Wall duration     = 7.39 seconds
Compute duration  = 7.39 seconds
parameters        = y_raw, x_raw[1], x_raw[2], x_raw[3], x_raw[4], x_raw[5], x_raw[6], x_raw[7], x_raw[8], x_raw[9], y, x[1], x[2], x[3], x[4], x[5], x[6], x[7], x[8], x[9]
internals         = lp, n_steps, is_accept, acceptance_rate, log_density, hamiltonian_energy, hamiltonian_energy_error, max_hamiltonian_energy_error, tree_depth, numerical_error, step_size, nom_step_size

Summary Statistics
  parameters      mean       std      mcse    ess_bulk   ess_tail      rhat    ⋯
      Symbol   Float64   Float64   Float64     Float64    Float64   Float64    ⋯

       y_raw   -0.0011    1.0085    0.0312   1059.1688   675.1286    0.9994    ⋯
    x_raw[1]    0.0277    1.0493    0.0315   1083.0753   646.8862    0.9997    ⋯
    x_raw[2]   -0.0197    0.9998    0.0305   1069.9571   651.3170    1.0015    ⋯
    x_raw[3]   -0.0030    0.9593    0.0296   1070.0943   697.8228    0.9992    ⋯
    x_raw[4]    0.0083    0.9734    0.0278   1239.1111   718.9306    0.9996    ⋯
    x_raw[5]   -0.0298    1.0027    0.0320    997.4436   704.2473    0.9991    ⋯
    x_raw[6]   -0.0324    1.0174    0.0301   1139.9258   727.6337    1.0013    ⋯
    x_raw[7]   -0.0489    0.9673    0.0265   1322.9328   816.4729    0.9996    ⋯
    x_raw[8]   -0.0208    0.9974    0.0297   1131.0573   823.1442    1.0056    ⋯
    x_raw[9]   -0.0391    0.9713    0.0287   1158.9050   771.1059    1.0039    ⋯
           y   -0.0034    3.0255    0.0936   1059.1688   675.1286    0.9994    ⋯
        x[1]    0.1426    9.6239    0.3730   1136.0619   846.7010    0.9997    ⋯
        x[2]    0.6712   12.8849    0.4151    862.5275   788.3718    0.9999    ⋯
        x[3]    0.0495    9.2242    0.3095    873.1345   629.6251    1.0012    ⋯
        x[4]    0.2133    8.8324    0.3047    853.9080   798.3740    0.9993    ⋯
        x[5]   -0.3265    7.2077    0.2839    809.7508   727.6967    1.0010    ⋯
        x[6]    0.1241   10.8396    0.3893    987.9909   692.6692    1.0000    ⋯
      ⋮           ⋮         ⋮         ⋮          ⋮          ⋮          ⋮       ⋱
                                                     1 column and 3 rows omitted
…
