Tracking Extra Quantities – Turing.jl
…
The first way is to use the := operator, which behaves exactly like = except that the values of the variables on its left-hand side are automatically added to the chain returned by the sampler. For example:

@model function Neal_coloneq()
    # Raw draws
    y_raw ~ Normal(0, 1)
    x_raw ~ arraydist([Normal(0, 1) for i in 1:9])

    # Transform:
    y := 3 * y_raw
    x := exp.(y ./ 2) .* x_raw
end

sample(Neal_coloneq(), NUTS(), 1000)

┌ Info: Found initial step size
└   ϵ = 1.6003906250000002

Chains MCMC chain (1000×32×1 Array{Float64, 3}):

Iterations        = 501:1:1500
Number of chains  = 1
Samples per chain = 1000
Wall duration     = 7.47 seconds
Compute duration  = 7.47 seconds
parameters        = y_raw, x_raw[1], x_raw[2], x_raw[3], x_raw[4], x_raw[5], x_raw[6], x_raw[7], x_raw[8], x_raw[9], y, x[1], x[2], x[3], x[4], x[5], x[6], x[7], x[8], x[9]
internals         = lp, n_steps, is_accept, acceptance_rate, log_density, hamiltonian_energy, hamiltonian_energy_error, max_hamiltonian_energy_error, tree_depth, numerical_error, step_size, nom_step_size

Summary Statistics
  parameters      mean       std      mcse    ess_bulk   ess_tail      rhat    ⋯
      Symbol   Float64   Float64   Float64     Float64    Float64   Float64    ⋯

       y_raw   -0.0278    0.9739    0.0216   2017.7209   821.2758    0.9992    ⋯
    x_raw[1]    0.0010    0.9845    0.0232   1828.0966   713.2268    1.0001    ⋯
    x_raw[2]    0.0069    1.0091    0.0317    996.6070   625.4522    0.9996    ⋯
    x_raw[3]   -0.0167    1.0251    0.0262   1550.2069   736.3922    1.0012    ⋯
    x_raw[4]    0.0298    1.0014    0.0267   1410.8771   662.1250    0.9992    ⋯
    x_raw[5]   -0.0180    1.0141    0.0270   1405.9784   786.2282    1.0003    ⋯
    x_raw[6]   -0.0504    1.0207    0.0285   1291.7163   652.8691    0.9996    ⋯
    x_raw[7]    0.0407    1.0374    0.0282   1366.9795   699.9676    0.9995    ⋯
    x_raw[8]   -0.0295    0.9916    0.0261   1443.2531   779.6649    1.0026    ⋯
    x_raw[9]    0.0419    0.9879    0.0296   1111.3504   895.5728    1.0031    ⋯
           y   -0.0834    2.9217    0.0648   2017.7209   821.2758    0.9992    ⋯
        x[1]   -0.3134    5.6036    0.1820   1240.6653   880.2411    0.9992    ⋯
        x[2]    0.1953    5.6956    0.1953    748.5920   912.3884    0.9995    ⋯
        x[3]   -0.3543    7.6036    0.2831    883.4463   756.1900    1.0009    ⋯
        x[4]    0.0834    5.7830    0.1895   1076.8188   862.2295    1.0005    ⋯
        x[5]   -0.0085    5.3522    0.1889    954.0068   720.0367    1.0001    ⋯
        x[6]   -0.2432    6.8473    0.2314    878.8303   788.5790    1.0002    ⋯
      ⋮           ⋮         ⋮         ⋮          ⋮          ⋮          ⋮       ⋱
                                                     1 column and 3 rows omitted
…
