Tracking Extra Quantities – Turing.jl
…
The first way is to use the := operator, which behaves exactly like = except that the values of the variables on its left-hand side are automatically added to the chain returned by the sampler. For example:

@model function Neal_coloneq()
    # Raw draws
    y_raw ~ Normal(0, 1)
    x_raw ~ arraydist([Normal(0, 1) for i in 1:9])

    # Transform:
    y := 3 * y_raw
    x := exp.(y ./ 2) .* x_raw
end

sample(Neal_coloneq(), NUTS(), 1000)

┌ Info: Found initial step size
└   ϵ = 1.6

Chains MCMC chain (1000×32×1 Array{Float64, 3}):

Iterations        = 501:1:1500
Number of chains  = 1
Samples per chain = 1000
Wall duration     = 7.09 seconds
Compute duration  = 7.09 seconds
parameters        = y_raw, x_raw[1], x_raw[2], x_raw[3], x_raw[4], x_raw[5], x_raw[6], x_raw[7], x_raw[8], x_raw[9], y, x[1], x[2], x[3], x[4], x[5], x[6], x[7], x[8], x[9]
internals         = lp, n_steps, is_accept, acceptance_rate, log_density, hamiltonian_energy, hamiltonian_energy_error, max_hamiltonian_energy_error, tree_depth, numerical_error, step_size, nom_step_size

Summary Statistics
  parameters      mean       std      mcse    ess_bulk   ess_tail      rhat    ⋯
      Symbol   Float64   Float64   Float64     Float64    Float64   Float64    ⋯

       y_raw   -0.0526    0.9933    0.0293   1156.0979   795.1351    1.0003    ⋯
    x_raw[1]    0.0175    0.9648    0.0286   1160.9675   794.6371    1.0019    ⋯
    x_raw[2]    0.0208    1.0294    0.0272   1450.6421   790.6797    1.0010    ⋯
    x_raw[3]    0.0162    1.0756    0.0291   1373.8943   767.4709    1.0000    ⋯
    x_raw[4]    0.0055    1.0272    0.0241   1839.9750   875.6889    1.0049    ⋯
    x_raw[5]   -0.0369    1.0194    0.0269   1429.3289   865.9542    1.0002    ⋯
    x_raw[6]    0.0080    1.0015    0.0245   1676.3572   868.6118    0.9991    ⋯
    x_raw[7]    0.0073    1.0318    0.0340    923.4848   787.6426    0.9991    ⋯
    x_raw[8]   -0.0031    1.0118    0.0272   1381.7684   745.7006    1.0008    ⋯
    x_raw[9]   -0.0586    0.9928    0.0271   1351.1010   731.5987    1.0013    ⋯
           y   -0.1578    2.9799    0.0880   1156.0979   795.1351    1.0003    ⋯
        x[1]    0.1659    6.0523    0.1968    922.7803   808.6338    0.9991    ⋯
        x[2]   -0.3845    7.3314    0.2826    938.6246   760.8002    1.0028    ⋯
        x[3]   -0.1722    6.3731    0.2361    818.0978   638.5229    1.0004    ⋯
        x[4]   -0.2867    8.5252    0.2950   1174.7202   915.7711    1.0034    ⋯
        x[5]    0.2598    7.2219    0.2396   1029.4437   589.9132    1.0032    ⋯
        x[6]   -0.0947    6.3009    0.2130   1192.0321   881.3880    0.9997    ⋯
      ⋮           ⋮         ⋮         ⋮          ⋮          ⋮          ⋮       ⋱
                                                     1 column and 3 rows omitted
…
