Tracking Extra Quantities – Turing.jl
…
The first way is to use the := operator, which behaves exactly like = except that the values of the variables on its left-hand side are automatically added to the chain returned by the sampler. For example:

@model function Neal_coloneq()
    # Raw draws
    y_raw ~ Normal(0, 1)
    x_raw ~ arraydist([Normal(0, 1) for i in 1:9])

    # Transform:
    y := 3 * y_raw
    x := exp.(y ./ 2) .* x_raw
end

sample(Neal_coloneq(), NUTS(), 1000)

┌ Info: Found initial step size
└   ϵ = 1.6

Chains MCMC chain (1000×32×1 Array{Float64, 3}):

Iterations        = 501:1:1500
Number of chains  = 1
Samples per chain = 1000
Wall duration     = 7.16 seconds
Compute duration  = 7.16 seconds
parameters        = y_raw, x_raw[1], x_raw[2], x_raw[3], x_raw[4], x_raw[5], x_raw[6], x_raw[7], x_raw[8], x_raw[9], y, x[1], x[2], x[3], x[4], x[5], x[6], x[7], x[8], x[9]
internals         = lp, n_steps, is_accept, acceptance_rate, log_density, hamiltonian_energy, hamiltonian_energy_error, max_hamiltonian_energy_error, tree_depth, numerical_error, step_size, nom_step_size

Summary Statistics
  parameters      mean       std      mcse    ess_bulk   ess_tail      rhat    ⋯
      Symbol   Float64   Float64   Float64     Float64    Float64   Float64    ⋯

       y_raw    0.0368    0.9757    0.0254   1493.2877   899.3448    1.0126    ⋯
    x_raw[1]   -0.0361    0.9478    0.0274   1188.9118   670.7257    1.0044    ⋯
    x_raw[2]    0.0049    0.9986    0.0266   1407.5027   706.3831    1.0021    ⋯
    x_raw[3]   -0.0188    1.0110    0.0299   1140.6329   816.5882    1.0000    ⋯
    x_raw[4]   -0.0034    1.0300    0.0292   1240.9278   837.8248    0.9997    ⋯
    x_raw[5]    0.0038    1.0238    0.0237   1874.6691   881.7711    1.0010    ⋯
    x_raw[6]   -0.0210    1.0019    0.0264   1429.9060   802.6860    0.9993    ⋯
    x_raw[7]   -0.0114    0.9919    0.0244   1637.3895   765.4260    0.9995    ⋯
    x_raw[8]    0.0262    1.0662    0.0291   1340.7217   708.0435    1.0013    ⋯
    x_raw[9]   -0.0071    0.9481    0.0272   1232.8924   785.8980    0.9994    ⋯
           y    0.1104    2.9271    0.0761   1493.2877   899.3448    1.0126    ⋯
        x[1]   -0.1569    6.0110    0.2311    858.9863   766.1633    1.0026    ⋯
        x[2]   -0.2275    6.7924    0.2171    913.2291   689.8085    1.0005    ⋯
        x[3]   -0.1377    7.1633    0.2214   1044.7285   820.4943    0.9994    ⋯
        x[4]    0.0214    6.2331    0.2324    806.5543   683.2173    0.9998    ⋯
        x[5]   -0.2719    6.9901    0.2232    927.7552   739.5350    1.0005    ⋯
        x[6]   -0.0887    5.7286    0.2198   1080.7246   671.8874    0.9992    ⋯
      ⋮           ⋮         ⋮         ⋮          ⋮          ⋮          ⋮       ⋱
                                                     1 column and 3 rows omitted
…
