Gaussian Processes: Introduction – Turing.jl
…
In this case, the only prior knowledge I have is that the proportion of successful shots ought to decrease monotonically as the distance from the hole increases, which should show up in the data as the blue lines generally go down as we move from left to right on each graph. Unfortunately, there is not a simple way to enforce monotonicity in the samples from a GP, and we can see this in some of the plots above, so we must hope that we have enough data to ensure that this relationship holds approximately under the posterior. In any case, you can judge for yourself whether you think this is the most useful visualisation that we can perform – if you think there is something better to look at, please let us know!

Moving on, we generate samples from the posterior using the default NUTS sampler. We’ll make use of ReverseDiff.jl, as it has better performance than ForwardDiff.jl on this example. See Turing.jl’s docs on Automatic Differentiation for more info.

using Random, ReverseDiff

m_post = m | (y=df.y,)
chn = sample(Xoshiro(123456), m_post, NUTS(; adtype=AutoReverseDiff()), 1_000, progress=false)

┌ Info: Found initial step size
└   ϵ = 0.2

Chains MCMC chain (1000×33×1 Array{Float64, 3}):

Iterations        = 501:1:1500
Number of chains  = 1
Samples per chain = 1000
Wall duration     = 149.67 seconds
Compute duration  = 149.67 seconds
parameters        = v, l, f_latent[1], f_latent[2], f_latent[3], f_latent[4], f_latent[5], f_latent[6], f_latent[7], f_latent[8], f_latent[9], f_latent[10], f_latent[11], f_latent[12], f_latent[13], f_latent[14], f_latent[15], f_latent[16], f_latent[17], f_latent[18], f_latent[19]
internals         = lp, n_steps, is_accept, acceptance_rate, log_density, hamiltonian_energy, hamiltonian_energy_error, max_hamiltonian_energy_error, tree_depth, numerical_error, step_size, nom_step_size

Summary Statistics
    parameters      mean       std      mcse    ess_bulk   ess_tail      rhat  ⋯
        Symbol   Float64   Float64   Float64     Float64    Float64   Float64  ⋯

             v    2.8740    1.2900    0.0418   1067.5214   787.6270    1.0003  ⋯
             l    3.6385    0.8280    0.0519    225.8803   286.8892    1.0033  ⋯
   f_latent[1]    2.5453    0.0979    0.0030   1077.4782   490.0008    1.0005  ⋯
   f_latent[2]    1.7002    0.0683    0.0019   1257.5024   704.7677    1.0013  ⋯
   f_latent[3]    0.9733    0.0794    0.0033    582.2903   566.8537    1.0026  ⋯
   f_latent[4]    0.4780    0.0762    0.0026    876.7129   525.4170    1.0013  ⋯
   f_latent[5]    0.1911    0.0734    0.0024    933.8486   716.6565    0.9998  ⋯
   f_latent[6]   -0.0141    0.0875    0.0039    521.0220   721.1299    0.9992  ⋯
   f_latent[7]   -0.2437    0.0828    0.0029    835.3462   702.7869    1.0007  ⋯
   f_latent[8]   -0.5026    0.0878    0.0028   1025.6213   535.9936    1.0047  ⋯
   f_latent[9]   -0.7226    0.0997    0.0037    732.5870   627.0753    1.0012  ⋯
  f_latent[10]   -0.8661    0.0966    0.0033    865.2909   675.3767    1.0007  ⋯
  f_latent[11]   -0.9529    0.0980    0.0031   1003.0110   611.8971    1.0004  ⋯
  f_latent[12]   -1.0450    0.1074    0.0043    639.0534   682.9616    0.9999  ⋯
  f_latent[13]   -1.1966    0.1136    0.0045    629.2198   743.7114    1.0000  ⋯
  f_latent[14]   -1.4113    0.1118    0.0037    928.4357   656.2373    1.0011  ⋯
  f_latent[15]   -1.6110    0.1204    0.0047    700.0815   491.5819    1.0041  ⋯
       ⋮            ⋮         ⋮         ⋮          ⋮          ⋮          ⋮     ⋱
                                                     1 column and 4 rows omitted
…
