…
## Data Cleaning & Set Up

Now we're going to import our dataset. Twenty rows of the dataset are shown below so you can get a good feel for what kind of data we have.

```julia
# Import the "iris" dataset.
data = RDatasets.dataset("datasets", "iris");

# Show twenty random rows.
data[rand(1:size(data, 1), 20), :]
```

```
20×5 DataFrame
 Row │ SepalLength  SepalWidth  PetalLength  PetalWidth  Species
     │ Float64      Float64     Float64      Float64     Cat…
─────┼──────────────────────────────────────────────────────────────
   1 │         6.8         3.0          5.5         2.1  virginica
   2 │         5.1         3.8          1.5         0.3  setosa
   3 │         6.1         2.8          4.0         1.3  versicolor
   4 │         5.7         4.4          1.5         0.4  setosa
   5 │         6.9         3.1          5.4         2.1  virginica
   6 │         5.6         3.0          4.1         1.3  versicolor
   7 │         7.2         3.2          6.0         1.8  virginica
   8 │         6.0         3.0          4.8         1.8  virginica
  ⋮  │      ⋮           ⋮            ⋮           ⋮           ⋮
  14 │         5.2         3.4          1.4         0.2  setosa
  15 │         5.4         3.7          1.5         0.2  setosa
  16 │         4.8         3.0          1.4         0.1  setosa
  17 │         6.0         3.4          4.5         1.6  versicolor
  18 │         5.6         2.9          3.6         1.3  versicolor
  19 │         4.8         3.0          1.4         0.1  setosa
  20 │         6.4         3.1          5.5         1.8  virginica
                                                      5 rows omitted
```


In this data set, the outcome `Species` is currently coded as a string. We convert it to a numerical value by using indices `1`, `2`, and `3` to indicate species `setosa`, `versicolor`, and `virginica`, respectively.

```julia
# Recode the `Species` column.
species = ["setosa", "versicolor", "virginica"]
data[!, :Species_index] = indexin(data[!, :Species], species)

# Show twenty random rows of the new species columns
data[rand(1:size(data, 1), 20), [:Species, :Species_index]]
```

```
20×2 DataFrame
 Row │ Species     Species_index
     │ Cat…        Union…
─────┼───────────────────────────
   1 │ setosa      1
   2 │ versicolor  2
   3 │ setosa      1
   4 │ versicolor  2
   5 │ virginica   3
   6 │ virginica   3
   7 │ setosa      1
   8 │ setosa      1
  ⋮  │     ⋮             ⋮
  14 │ versicolor  2
  15 │ virginica   3
  16 │ setosa      1
  17 │ versicolor  2
  18 │ setosa      1
  19 │ virginica   3
  20 │ versicolor  2
                   5 rows omitted
```
…
