Tracking Extra Quantities – Turing.jl
…
The first way is to use the := operator, which behaves exactly like = except that the values of the variables on its left-hand side are automatically added to the chain returned by the sampler. For example:

@model function Neal_coloneq()
    # Raw draws
    y_raw ~ Normal(0, 1)
    x_raw ~ arraydist([Normal(0, 1) for i in 1:9])

    # Transform:
    y := 3 * y_raw
    x := exp.(y ./ 2) .* x_raw
end

sample(Neal_coloneq(), NUTS(), 1000)

┌ Info: Found initial step size
└   ϵ = 1.6

Chains MCMC chain (1000×32×1 Array{Float64, 3}):

Iterations        = 501:1:1500
Number of chains  = 1
Samples per chain = 1000
Wall duration     = 6.89 seconds
Compute duration  = 6.89 seconds
parameters        = y_raw, x_raw[1], x_raw[2], x_raw[3], x_raw[4], x_raw[5], x_raw[6], x_raw[7], x_raw[8], x_raw[9], y, x[1], x[2], x[3], x[4], x[5], x[6], x[7], x[8], x[9]
internals         = lp, n_steps, is_accept, acceptance_rate, log_density, hamiltonian_energy, hamiltonian_energy_error, max_hamiltonian_energy_error, tree_depth, numerical_error, step_size, nom_step_size

Summary Statistics
  parameters      mean       std      mcse    ess_bulk   ess_tail      rhat    ⋯
      Symbol   Float64   Float64   Float64     Float64    Float64   Float64    ⋯

       y_raw    0.0035    0.9686    0.0273   1231.8037   592.1952    0.9995    ⋯
    x_raw[1]    0.0204    0.9961    0.0286   1214.3302   730.6255    1.0001    ⋯
    x_raw[2]   -0.0098    1.0291    0.0259   1590.6977   696.9770    0.9990    ⋯
    x_raw[3]    0.0267    0.9416    0.0244   1475.7037   654.8310    0.9995    ⋯
    x_raw[4]   -0.0135    1.0035    0.0274   1336.3368   828.0735    0.9996    ⋯
    x_raw[5]   -0.0121    1.0620    0.0273   1510.5527   739.5605    1.0030    ⋯
    x_raw[6]   -0.0346    1.0092    0.0278   1311.7265   731.1019    0.9999    ⋯
    x_raw[7]    0.0299    1.0210    0.0291   1245.2683   787.8116    1.0000    ⋯
    x_raw[8]   -0.0357    0.9942    0.0259   1509.0088   477.7590    1.0015    ⋯
    x_raw[9]   -0.0470    1.0090    0.0269   1400.7964   770.0862    0.9991    ⋯
           y    0.0105    2.9059    0.0820   1231.8037   592.1952    0.9995    ⋯
        x[1]   -0.5289   13.8142    0.4550   1069.4362   805.3545    0.9994    ⋯
        x[2]    0.7020   12.8319    0.4052   1128.4806   944.1954    0.9996    ⋯
        x[3]   -0.0981    5.1718    0.1697   1106.0246   787.7447    1.0004    ⋯
        x[4]   -0.1512   11.0807    0.3523   1099.1084   692.1409    0.9992    ⋯
        x[5]   -0.6372    9.1281    0.3073    964.4746   813.6232    1.0018    ⋯
        x[6]   -0.0918    7.2973    0.2436   1020.4148   861.1758    0.9992    ⋯
      ⋮           ⋮         ⋮         ⋮          ⋮          ⋮          ⋮       ⋱
                                                     1 column and 3 rows omitted
…
