Gaussian Processes: Introduction – Turing.jl
…
In this case, the only prior knowledge I have is that the proportion of successful shots ought to decrease monotonically as the distance from the hole increases, which should show up in the data as the blue lines generally go down as we move from left to right on each graph. Unfortunately, there is not a simple way to enforce monotonicity in the samples from a GP, and we can see this in some of the plots above, so we must hope that we have enough data to ensure that this relationship holds approximately under the posterior. In any case, you can judge for yourself whether you think this is the most useful visualisation that we can perform – if you think there is something better to look at, please let us know!

Moving on, we generate samples from the posterior using the default NUTS sampler. We’ll make use of ReverseDiff.jl, as it has better performance than ForwardDiff.jl on this example. See Turing.jl’s docs on Automatic Differentiation for more info.

using Random, ReverseDiff

m_post = m | (y=df.y,)
chn = sample(Xoshiro(123456), m_post, NUTS(; adtype=AutoReverseDiff()), 1_000, progress=false)

┌ Info: Found initial step size
└   ϵ = 0.2

Chains MCMC chain (1000×33×1 Array{Float64, 3}):

Iterations        = 501:1:1500
Number of chains  = 1
Samples per chain = 1000
Wall duration     = 148.46 seconds
Compute duration  = 148.46 seconds
parameters        = v, l, f_latent[1], f_latent[2], f_latent[3], f_latent[4], f_latent[5], f_latent[6], f_latent[7], f_latent[8], f_latent[9], f_latent[10], f_latent[11], f_latent[12], f_latent[13], f_latent[14], f_latent[15], f_latent[16], f_latent[17], f_latent[18], f_latent[19]
internals         = lp, n_steps, is_accept, acceptance_rate, log_density, hamiltonian_energy, hamiltonian_energy_error, max_hamiltonian_energy_error, tree_depth, numerical_error, step_size, nom_step_size

Summary Statistics
    parameters      mean       std      mcse    ess_bulk   ess_tail      rhat  ⋯
        Symbol   Float64   Float64   Float64     Float64    Float64   Float64  ⋯

             v    2.8019    1.2781    0.0604    447.1359   695.8370    0.9999  ⋯
             l    3.5776    0.9968    0.0975     99.0035   104.5329    1.0025  ⋯
   f_latent[1]    2.5443    0.1044    0.0038    759.1492   580.5865    0.9994  ⋯
   f_latent[2]    1.7056    0.0746    0.0024    978.9541   584.5681    0.9996  ⋯
   f_latent[3]    0.9769    0.0866    0.0050    296.1646   356.9508    1.0025  ⋯
   f_latent[4]    0.4787    0.0801    0.0043    348.8566   647.5708    1.0003  ⋯
   f_latent[5]    0.1949    0.0769    0.0026    886.3665   726.8519    1.0003  ⋯
   f_latent[6]   -0.0085    0.0995    0.0067    226.0623   424.0574    1.0005  ⋯
   f_latent[7]   -0.2471    0.0840    0.0035    562.4772   570.8933    1.0078  ⋯
   f_latent[8]   -0.5136    0.0921    0.0046    470.3300   336.7384    1.0073  ⋯
   f_latent[9]   -0.7265    0.1052    0.0056    386.3241   403.0347    1.0054  ⋯
  f_latent[10]   -0.8624    0.0989    0.0040    621.3075   598.6442    1.0053  ⋯
  f_latent[11]   -0.9501    0.0949    0.0031    991.0415   582.7107    1.0004  ⋯
  f_latent[12]   -1.0407    0.1094    0.0048    516.4460   326.2720    0.9998  ⋯
  f_latent[13]   -1.1915    0.1211    0.0060    412.8273   382.3954    1.0004  ⋯
  f_latent[14]   -1.4158    0.1179    0.0043    749.2159   602.7765    1.0005  ⋯
  f_latent[15]   -1.6236    0.1210    0.0067    361.9174   367.8756    1.0010  ⋯
       ⋮            ⋮         ⋮         ⋮          ⋮          ⋮          ⋮     ⋱
                                                     1 column and 4 rows omitted
…
