Tracking Extra Quantities – Turing.jl
…
The first way is to use the := operator, which behaves exactly like = except that the values of the variables on its left-hand side are automatically added to the chain returned by the sampler. For example:

@model function Neal_coloneq()
    # Raw draws
    y_raw ~ Normal(0, 1)
    x_raw ~ arraydist([Normal(0, 1) for i in 1:9])

    # Transform:
    y := 3 * y_raw
    x := exp.(y ./ 2) .* x_raw
end

sample(Neal_coloneq(), NUTS(), 1000)

┌ Info: Found initial step size
└   ϵ = 0.9

Chains MCMC chain (1000×32×1 Array{Float64, 3}):

Iterations        = 501:1:1500
Number of chains  = 1
Samples per chain = 1000
Wall duration     = 7.38 seconds
Compute duration  = 7.38 seconds
parameters        = y_raw, x_raw[1], x_raw[2], x_raw[3], x_raw[4], x_raw[5], x_raw[6], x_raw[7], x_raw[8], x_raw[9], y, x[1], x[2], x[3], x[4], x[5], x[6], x[7], x[8], x[9]
internals         = lp, n_steps, is_accept, acceptance_rate, log_density, hamiltonian_energy, hamiltonian_energy_error, max_hamiltonian_energy_error, tree_depth, numerical_error, step_size, nom_step_size

Summary Statistics
  parameters      mean       std      mcse    ess_bulk   ess_tail      rhat    ⋯
      Symbol   Float64   Float64   Float64     Float64    Float64   Float64    ⋯

       y_raw   -0.0188    0.9611    0.0314    942.0571   710.0411    1.0127    ⋯
    x_raw[1]    0.0214    0.9481    0.0279   1162.1327   824.4911    1.0054    ⋯
    x_raw[2]    0.0080    0.9668    0.0261   1371.8083   840.9217    0.9991    ⋯
    x_raw[3]    0.0452    1.0031    0.0315   1014.8842   502.5385    0.9998    ⋯
    x_raw[4]   -0.0063    1.0090    0.0325    954.7683   857.4946    0.9993    ⋯
    x_raw[5]    0.0169    1.0100    0.0327    949.6692   766.6262    1.0055    ⋯
    x_raw[6]   -0.0122    0.9825    0.0304   1046.5568   715.9193    1.0034    ⋯
    x_raw[7]    0.0070    0.9725    0.0352    764.3706   697.7432    1.0058    ⋯
    x_raw[8]   -0.0055    1.0214    0.0312   1074.0305   872.8682    1.0006    ⋯
    x_raw[9]    0.0043    1.0145    0.0258   1537.3047   822.4602    0.9993    ⋯
           y   -0.0565    2.8834    0.0942    942.0571   710.0411    1.0127    ⋯
        x[1]    0.2787    5.3746    0.1974    858.8039   782.6513    1.0083    ⋯
        x[2]    0.0897    5.0219    0.1610   1078.1193   863.0689    1.0074    ⋯
        x[3]    0.2595    7.0639    0.2384   1052.1879   717.1100    1.0109    ⋯
        x[4]    0.0265    6.3110    0.2098    861.1005   684.6797    1.0084    ⋯
        x[5]    0.4555    9.2587    0.3158    846.8057   550.4388    1.0109    ⋯
        x[6]   -0.0239    4.8225    0.1781    832.3587   697.6544    1.0023    ⋯
      ⋮           ⋮         ⋮         ⋮          ⋮          ⋮          ⋮       ⋱
                                                     1 column and 3 rows omitted
…
