Tracking Extra Quantities – Turing.jl
…
The first way is to use the := operator, which behaves exactly like = except that the values of the variables on its left-hand side are automatically added to the chain returned by the sampler. For example:

@model function Neal_coloneq()
    # Raw draws
    y_raw ~ Normal(0, 1)
    x_raw ~ arraydist([Normal(0, 1) for i in 1:9])

    # Transform:
    y := 3 * y_raw
    x := exp.(y ./ 2) .* x_raw
end

sample(Neal_coloneq(), NUTS(), 1000)

┌ Info: Found initial step size
└   ϵ = 3.2

Chains MCMC chain (1000×32×1 Array{Float64, 3}):

Iterations        = 501:1:1500
Number of chains  = 1
Samples per chain = 1000
Wall duration     = 6.77 seconds
Compute duration  = 6.77 seconds
parameters        = y_raw, x_raw[1], x_raw[2], x_raw[3], x_raw[4], x_raw[5], x_raw[6], x_raw[7], x_raw[8], x_raw[9], y, x[1], x[2], x[3], x[4], x[5], x[6], x[7], x[8], x[9]
internals         = lp, n_steps, is_accept, acceptance_rate, log_density, hamiltonian_energy, hamiltonian_energy_error, max_hamiltonian_energy_error, tree_depth, numerical_error, step_size, nom_step_size

Summary Statistics
  parameters      mean       std      mcse    ess_bulk   ess_tail      rhat    ⋯
      Symbol   Float64   Float64   Float64     Float64    Float64   Float64    ⋯

       y_raw    0.0312    0.9656    0.0255   1431.7415   871.8009    1.0031    ⋯
    x_raw[1]    0.0320    0.9424    0.0274   1182.1671   818.2163    1.0001    ⋯
    x_raw[2]    0.0228    0.9785    0.0254   1465.7842   553.6736    1.0076    ⋯
    x_raw[3]    0.0130    0.9587    0.0257   1357.0596   678.8443    1.0035    ⋯
    x_raw[4]    0.0077    0.9524    0.0272   1240.1599   807.9263    0.9992    ⋯
    x_raw[5]    0.0226    0.9642    0.0271   1270.6388   610.5548    0.9998    ⋯
    x_raw[6]    0.0541    0.9466    0.0261   1307.8964   847.0356    1.0037    ⋯
    x_raw[7]    0.0217    1.0021    0.0273   1340.6891   662.4274    0.9993    ⋯
    x_raw[8]    0.0187    0.9950    0.0264   1427.2753   737.6439    1.0018    ⋯
    x_raw[9]   -0.0434    0.9968    0.0300   1110.1698   722.9295    1.0027    ⋯
           y    0.0936    2.8967    0.0764   1431.7415   871.8009    1.0031    ⋯
        x[1]    0.4859    6.5745    0.2363    969.6836   677.2613    1.0010    ⋯
        x[2]    0.5069    8.5936    0.2605   1046.4604   824.5427    1.0014    ⋯
        x[3]    0.2067    7.8229    0.2429   1018.0188   663.4155    1.0009    ⋯
        x[4]    0.3255    7.7555    0.2628    973.3717   674.3060    0.9992    ⋯
        x[5]    0.1155    8.4265    0.3028    952.3562   664.9316    1.0002    ⋯
        x[6]    0.6055   11.2357    0.3938    856.8444   717.2317    1.0012    ⋯
      ⋮           ⋮         ⋮         ⋮          ⋮          ⋮          ⋮       ⋱
                                                     1 column and 3 rows omitted
…
